STAT167 Project Work: Difference between STEM and non-STEM - Spring 2020
…
(I.) Data Wrangling & Cleaning

Data was extracted from Kaggle website, using readr library to read and store the csv file/our data of interest into recentgrads object.

##main data
recentgrads <- read_csv(file = "recent-grads.csv")
## Parsed with column specification:
## cols(
##   .default = col_double(),
##   Major = col_character(),
##   Major_category = col_character()
## )
## See spec(...) for full column specifications.
recentgrads
## # A tibble: 173 x 21
##     Rank Major_code Major Total   Men Women Major_category ShareWomen
##    <dbl>      <dbl> <chr> <dbl> <dbl> <dbl> <chr>               <dbl>
##  1     1       2419 PETR~  2339  2057   282 Engineering         0.121
##  2     2       2416 MINI~   756   679    77 Engineering         0.102
##  3     3       2415 META~   856   725   131 Engineering         0.153
##  4     4       2417 NAVA~  1258  1123   135 Engineering         0.107
##  5     5       2405 CHEM~ 32260 21239 11021 Engineering         0.342
##  6     6       2418 NUCL~  2573  2200   373 Engineering         0.145
##  7     7       6202 ACTU~  3777  2110  1667 Business            0.441
##  8     8       5001 ASTR~  1792   832   960 Physical Scie~      0.536
##  9     9       2414 MECH~ 91227 80320 10907 Engineering         0.120
## 10    10       2408 ELEC~ 81527 65511 16016 Engineering         0.196
## # ... with 163 more rows, and 13 more variables: Sample_size <dbl>,
## #   Employed <dbl>, Full_time <dbl>, Part_time <dbl>,
## #   Full_time_year_round <dbl>, Unemployed <dbl>, Unemployment_rate <dbl>,
## #   Median <dbl>, P25th <dbl>, P75th <dbl>, College_jobs <dbl>,
## #   Non_college_jobs <dbl>, Low_wage_jobs <dbl>
…
STEM <- filter(recentgrads, recentgrads$Major_category == "Engineering" 
               | recentgrads$Major_category == "Physical Sciences" 
               | recentgrads$Major_category == "Computers & Mathematics"
               | recentgrads$Major_category == "Agriculture & Natural Resources"
               | recentgrads$Major_category == "Health"
               | recentgrads$Major_category == "Biology & Life Science")

STEM

## # A tibble: 86 x 21
##     Rank Major_code Major Total   Men Women Major_category ShareWomen
##    <dbl>      <dbl> <chr> <dbl> <dbl> <dbl> <chr>               <dbl>
##  1     1       2419 PETR~  2339  2057   282 Engineering         0.121
##  2     2       2416 MINI~   756   679    77 Engineering         0.102
##  3     3       2415 META~   856   725   131 Engineering         0.153
##  4     4       2417 NAVA~  1258  1123   135 Engineering         0.107
##  5     5       2405 CHEM~ 32260 21239 11021 Engineering         0.342
##  6     6       2418 NUCL~  2573  2200   373 Engineering         0.145
##  7     8       5001 ASTR~  1792   832   960 Physical Scie~      0.536
##  8     9       2414 MECH~ 91227 80320 10907 Engineering         0.120
##  9    10       2408 ELEC~ 81527 65511 16016 Engineering         0.196
## 10    11       2407 COMP~ 41542 33258  8284 Engineering         0.199
## # ... with 76 more rows, and 13 more variables: Sample_size <dbl>,
## #   Employed <dbl>, Full_time <dbl>, Part_time <dbl>,
## #   Full_time_year_round <dbl>, Unemployed <dbl>, Unemployment_rate <dbl>,
## #   Median <dbl>, P25th <dbl>, P75th <dbl>, College_jobs <dbl>,
## #   Non_college_jobs <dbl>, Low_wage_jobs <dbl>

NONSTEM <- filter(recentgrads, recentgrads$Major_category == "Business"
                  | recentgrads$Major_category == "Law & Public Policy"
                  | recentgrads$Major_category == "Industrial Arts & Consumer Services"
                  | recentgrads$Major_category == "Arts"
                  | recentgrads$Major_category == "Social Science" 
                  | recentgrads$Major_category == "Education"
                  | recentgrads$Major_category == "Humanities & Liberal Arts"
                  | recentgrads$Major_category == "Pyschology & Social Work"
                  | recentgrads$Major_category == "Communications & Journalism"
                  | recentgrads$Major_category == "Interdisciplinary")

NONSTEM

## # A tibble: 78 x 21
##     Rank Major_code Major  Total    Men Women Major_category ShareWomen
##    <dbl>      <dbl> <chr>  <dbl>  <dbl> <dbl> <chr>               <dbl>
##  1     7       6202 ACTU~   3777   2110  1667 Business           0.441 
##  2    20       3201 COUR~   1148    877   271 Law & Public ~     0.236 
##  3    25       6212 MANA~  18713  13496  5217 Business           0.279 
##  4    27       5601 CONS~  18498  16820  1678 Industrial Ar~     0.0907
##  5    28       6204 OPER~  11732   7921  3811 Business           0.325 
##  6    30       5402 PUBL~   5978   2639  3339 Law & Public ~     0.559 
##  7    33       6099 c       3340   1970  1370 Arts               0.410 
##  8    36       6207 FINA~ 174506 115030 59476 Business           0.341 
##  9    37       5501 ECON~ 139247  89749 49498 Social Science     0.355 
## 10    38       6205 BUSI~  13302   7575  5727 Business           0.431 
## # ... with 68 more rows, and 13 more variables: Sample_size <dbl>,
## #   Employed <dbl>, Full_time <dbl>, Part_time <dbl>,
## #   Full_time_year_round <dbl>, Unemployed <dbl>, Unemployment_rate <dbl>,
## #   Median <dbl>, P25th <dbl>, P75th <dbl>, College_jobs <dbl>,
## #   Non_college_jobs <dbl>, Low_wage_jobs <dbl>
…
                   Major_category == "Computers & Mathematics" | Major_category == "Agriculture & Natural Resources"| Major_category == "Health"| 
                   Major_category == "Biology & Life Science"){
    n = 1 #STEM is 1 
  }else{
    n = 0 #NONSTEM is 0
  }, default = if(Major_category == "Engineering" | Major_category == "Physical Sciences" | 
                   Major_category == "Computers & Mathematics" | Major_category == "Agriculture & Natural Resources"| Major_category == "Health"| 
                   Major_category == "Biology & Life Science"){
    n = "Yes" #STEM is Yes 
  }else{
    n = "No" #NONSTEM is No
  }) %>%
  select(Major, Major_category, SorN, default, Total, Employed, Unemployed, Unemployment_rate, Median, College_jobs)
recentgrads_SorN
## # A tibble: 173 x 10
## # Groups:   Major, Major_category [173]
##    Major Major_category  SorN default Total Employed Unemployed
##    <chr> <chr>          <dbl> <chr>   <dbl>    <dbl>      <dbl>
##  1 PETR~ Engineering        1 Yes      2339     1976         37
##  2 MINI~ Engineering        1 Yes       756      640         85
##  3 META~ Engineering        1 Yes       856      648         16
##  4 NAVA~ Engineering        1 Yes      1258      758         40
##  5 CHEM~ Engineering        1 Yes     32260    25694       1672
##  6 NUCL~ Engineering        1 Yes      2573     1857        400
##  7 ACTU~ Business           0 No       3777     2912        308
##  8 ASTR~ Physical Scie~     1 Yes      1792     1526         33
##  9 MECH~ Engineering        1 Yes     91227    76442       4650
## 10 ELEC~ Engineering        1 Yes     81527    61928       3895
## # ... with 163 more rows, and 3 more variables: Unemployment_rate <dbl>,
## #   Median <dbl>, College_jobs <dbl>
…
